…
    library(dplyr)
    library(ggplot2)

    #Calculate the Total Number of Steps Taken Per Day
    daily_steps <- activity_data %>%
      group_by(date) %>%
      summarise(total_steps = sum(steps))

    #Setting a dataset that ignores NAs
    daily_steps_no_na <- daily_steps[!is.na(daily_steps$total_steps), ]

    print(daily_steps_no_na)

    ## # A tibble: 53 × 2
    ##    date       total_steps
    ##    <date>           <dbl>
    ##  1 2012-10-02         126
    ##  2 2012-10-03       11352
    ##  3 2012-10-04       12116
    ##  4 2012-10-05       13294
    ##  5 2012-10-06       15420
    ##  6 2012-10-07       11015
    ##  7 2012-10-09       12811
    ##  8 2012-10-10        9900
    ##  9 2012-10-11       10304
    ## 10 2012-10-12       17382
    ## # ℹ 43 more rows
…
